<svg xmlns="http://www.w3.org/2000/svg" viewBox="0 0 109.45 40.16">
    <defs>
        <style>
            .cls-1 {
                /* fill: #e4ecf4; */
                fill: #000;
            }
        </style>
    </defs>
    <g id="Capa_2" data-name="Capa 2">
        <g id="Capa_1-2" data-name="Capa 1">
            <path class="cls-1"
                d="M3.16,25.76c0-3.94,0-7.88,0-11.82,0-3.27,0-6.55,0-9.82,0-.42,0-.79.53-1a38.7,38.7,0,0,1,8.76-1.83c4-.28,7.72.67,11.47,1.73a1,1,0,0,1,.84,1.11q0,10.85,0,21.71a3.7,3.7,0,0,1-1.93,3.45,35.07,35.07,0,0,1-4.09,2,7,7,0,0,1-2.32.41c-.79,0-1.12-.3-.91-1a14.43,14.43,0,0,1,1.13-2.39,5.16,5.16,0,0,0,.69-1.25,28.22,28.22,0,0,0,.35-8.15A85.74,85.74,0,0,0,14.78,4.63a17.92,17.92,0,0,0-1.17-2.52l-.28.06a4.46,4.46,0,0,0-.37.72,23.31,23.31,0,0,0-1,4c-.45,5.3-.76,10.62-1.13,15.94a2.71,2.71,0,0,0,.06.38H11q1.17-9.15,2.35-18.31h.23c.13.84.24,1.68.39,2.51.37,2.12.93,4.23,1.12,6.37.38,4.28.56,8.58.84,12.87A3,3,0,0,1,15,29.12a3.1,3.1,0,0,0-1,2.91c0,.52.23.7.77.68A21.58,21.58,0,0,0,26.11,29a3.74,3.74,0,0,0,1.7-3.28q0-11.74,0-23.49c0-.6-.16-.83-.77-.95a68.88,68.88,0,0,0-26.19,0c-.69.13-.85.39-.85,1,0,7.63,0,15.25,0,22.87a4.42,4.42,0,0,0,1.93,3.89c.79.56,1.64,1,2.46,1.55l.18-.16A6.42,6.42,0,0,1,3.16,25.76Z" />
            <path class="cls-1"
                d="M70.72,28c-.13-.45-.22-.77-.32-1.08q-1.91-5.76-3.8-11.52c-.53-1.61-.53-1.6-2.23-1.62a.85.85,0,0,0-1,.68C62,18.76,60.58,23,59.17,27.27c-.07.23-.12.47-.19.77.62,0,1.14,0,1.65,0s.68-.17.8-.61c.23-.84.53-1.67.76-2.51a.67.67,0,0,1,.77-.57c1.16,0,2.32,0,3.47,0a.94.94,0,0,1,.69.5c.32.87.53,1.78.84,2.65a.83.83,0,0,0,.55.47C69.2,28.08,69.9,28,70.72,28Zm-7-5.17c-.25,0-.5,0-.89,0l1.92-6.49c.64,2.23,1.24,4.3,1.89,6.53Z" />
            <path class="cls-1"
                d="M86.3,28.12a19.81,19.81,0,0,0,3.88-.36c.54-.06.66-.43.65-.94,0-2.06,0-4.12,0-6.18s0-4.11,0-6.17c0-.24-.2-.66-.35-.68a15.74,15.74,0,0,0-2,0v4.09l-.84-.11a4.26,4.26,0,0,0-5,3.64,10,10,0,0,0-.12,2.68C82.79,26.36,84.17,28,86.3,28.12ZM85,21c.23-1.53,1.39-2.19,2.95-2,.42,0,.58.2.58.62,0,1.08,0,2.16,0,3.24s0,2.06,0,3.08c0,.49-.17.68-.65.75-1.53.22-2.66-.41-2.89-1.94A12.67,12.67,0,0,1,85,21Z" />
            <path class="cls-1"
                d="M80.34,20.82a2.76,2.76,0,0,0-2.35-3,10.33,10.33,0,0,0-5,.23c-.55.15-.71.44-.71,1,0,2.75,0,5.5,0,8.26,0,.22,0,.44.06.68H74.5c0-.31,0-.59,0-.86V20.5c0-1.31.1-1.41,1.44-1.44s2.07.55,2.07,2q0,3,0,6.1c0,.27,0,.54,0,.83h2.25C80.34,25.55,80.35,23.19,80.34,20.82Z" />
            <path class="cls-1"
                d="M38,19.51a6.75,6.75,0,0,0,.11,7,4.05,4.05,0,0,0,6.67,0,6.4,6.4,0,0,0,.89-3.62l.21-.06a18.16,18.16,0,0,0-1-3.26A4,4,0,0,0,38,19.51Zm5,6a1.56,1.56,0,0,1-1.48,1.16,1.5,1.5,0,0,1-1.6-1.08c-.28-.87-.42-1.78-.63-2.7.21-.94.35-1.85.62-2.73a1.49,1.49,0,0,1,1.59-1.09A1.53,1.53,0,0,1,43,20.21,8,8,0,0,1,43,25.51Z" />
            <path class="cls-1"
                d="M100.54,26.22c-.81.14-1.55.32-2.31.39a2.6,2.6,0,0,1-3-2.85c1.71-.25,3.43-.5,5.16-.77,1.09-.16,1.09-.17,1-1.28a.76.76,0,0,0,0-.15c-.24-2.47-1.5-3.76-3.83-3.92A4,4,0,0,0,93.13,21a7.91,7.91,0,0,0,.08,4,4,4,0,0,0,1.64,2.35c2,1.29,4.06.84,6.2.17Zm-5.75-3.59a18,18,0,0,1,.64-2.5,1.91,1.91,0,0,1,2.54-1,2.58,2.58,0,0,1,1.25,2.52.57.57,0,0,1-.36.32C97.6,22.21,96.34,22.4,94.79,22.63Z" />
            <path class="cls-1"
                d="M107.38,22.32c-.37-.19-.74-.36-1.1-.57a1.44,1.44,0,0,1-.82-1.72,1.42,1.42,0,0,1,1.75-.89,11,11,0,0,1,1.24.36c.75-1.12.7-1.34-.53-1.66a6.19,6.19,0,0,0-1.82-.18A2.88,2.88,0,0,0,105,23.23c.3.14.62.26.92.41a1.56,1.56,0,0,1,1,1.85,1.49,1.49,0,0,1-1.81,1.07,14.44,14.44,0,0,1-1.72-.38c-.16.41-.34.83-.51,1.24a5.48,5.48,0,0,0,3.58.73,3.34,3.34,0,0,0,2.85-2.67A3.08,3.08,0,0,0,107.38,22.32Z" />
            <path class="cls-1"
                d="M51.66,22.33a10.27,10.27,0,0,1-1.35-.73,1.3,1.3,0,0,1-.6-1.6,1.33,1.33,0,0,1,1.47-.89,11.77,11.77,0,0,1,1.61.38l.47-1.19a4.74,4.74,0,0,0-3.85-.47,2.68,2.68,0,0,0-2,2.42A2.67,2.67,0,0,0,49,23.05c.46.25.94.43,1.39.67a1.5,1.5,0,0,1,.86,1.79,1.41,1.41,0,0,1-1.58,1.06,17.71,17.71,0,0,1-1.95-.36l-.51,1.27a5.36,5.36,0,0,0,3.55.67,3.28,3.28,0,0,0,2.88-2.62A3.07,3.07,0,0,0,51.66,22.33Z" />
            <path class="cls-1" d="M34.87,13.74H32.69V28h2.18Z" />
            <path class="cls-1"
                d="M34.32,10.54a22.43,22.43,0,0,0,3.06-.12c.54,0,.69-.37.68-.9,0-2.44,0-4.88,0-7.33A6.33,6.33,0,0,0,38,1.55H36.5v.9c0,2.14,0,4.27,0,6.41a1,1,0,0,1-.26.71,1.35,1.35,0,0,1-2.08-1.25V1.52H32.69a2.45,2.45,0,0,0-.07.36c0,2.28,0,4.57,0,6.86A1.82,1.82,0,0,0,34.32,10.54Z" />
            <path class="cls-1"
                d="M100.25,10.68A9.64,9.64,0,0,0,102,10.5c.54-.08.74-.38.73-1,0-2.29,0-4.58,0-6.87V1.5h-1.45V4h-.66a2.66,2.66,0,0,0-3,2.05C96.8,8.4,98,10.58,100.25,10.68Zm-1.1-4.94a1.84,1.84,0,0,1,.91-.85c.9-.36,1.19-.11,1.19.85V7.28c0,.62,0,1.24,0,1.85s-.22.65-.64.64a1.37,1.37,0,0,1-1.47-.88A4.05,4.05,0,0,1,99.15,5.74Z" />
            <path class="cls-1"
                d="M92.71,9.58c0-2.47,0-4.94,0-7.41,0-.2,0-.4,0-.65H91.25V4h-1a2.53,2.53,0,0,0-2.06.88,4.36,4.36,0,0,0-.37,4.46c.81,1.37,2.1,1.51,3.51,1.29l.61-.1C92.49,10.44,92.72,10.18,92.71,9.58Zm-2.26.21a1.4,1.4,0,0,1-1.38-1,4,4,0,0,1,.09-3.07A1.66,1.66,0,0,1,90,4.94c1-.4,1.3-.13,1.3.89V7.29c0,.59,0,1.18,0,1.77S91,9.83,90.45,9.79Z" />
            <path class="cls-1"
                d="M76.76,10.63a7.78,7.78,0,0,0,2.44-.2.89.89,0,0,0,.51-.68c0-2.57,0-5.15,0-7.72,0-.54-.28-.57-.68-.56s-.79-.05-.76.56,0,1.27,0,2h-.67a2.75,2.75,0,0,0-3.14,2.33C74,8.47,74.93,10.37,76.76,10.63Zm-.63-4.86A1.72,1.72,0,0,1,77,4.94c1-.41,1.34-.14,1.34.93V7.34c0,.59,0,1.18,0,1.77s-.24.69-.7.68a1.46,1.46,0,0,1-1.55-1A4,4,0,0,1,76.13,5.77Z" />
            <path class="cls-1"
                d="M39.73,8.64v1.92h1.46V9.63c0-1.34,0-2.68,0-4A.9.9,0,0,1,41.53,5a1.25,1.25,0,0,1,1.89,1.22c0,1.24,0,2.47,0,3.71,0,.59.21.79.76.71.2,0,.4,0,.65-.06,0-1.71,0-3.38,0-5a1.61,1.61,0,0,0-1.52-1.42,22.86,22.86,0,0,0-3,.13c-.48,0-.6.35-.59.81C39.75,6.22,39.73,7.43,39.73,8.64Z" />
            <path class="cls-1"
                d="M82.37,10.52a19.14,19.14,0,0,0,3.12-.09A.87.87,0,0,0,86,9.77a26,26,0,0,0,0-3.85,2.67,2.67,0,0,0-.88-1.6c-.79-.65-2.78-.45-3.66.22l.3.63a4.64,4.64,0,0,1,.7-.19A4,4,0,0,1,84,5c.31.11.48.62.71,1a4.87,4.87,0,0,1-.75.46,14,14,0,0,0-2.14.79,1.75,1.75,0,0,0-.71,2A1.49,1.49,0,0,0,82.37,10.52Zm.7-3.1a9.1,9.1,0,0,1,1.61-.48c0,.95,0,1.74,0,2.52a.55.55,0,0,1-.23.35,1.68,1.68,0,0,1-1.87-.44A1.47,1.47,0,0,1,83.07,7.42Z" />
            <path class="cls-1"
                d="M60.68,10.19l-.29-.73c-2.49.48-3.19.17-3.47-1.63,1.18-.18,2.33-.32,3.46-.53a.8.8,0,0,0,.53-.54,2.62,2.62,0,0,0-5.06-1.14,6.3,6.3,0,0,0-.24,2.49C55.81,10.6,58.46,11.36,60.68,10.19ZM57.19,5.41a1.26,1.26,0,0,1,1.62-.47,1.56,1.56,0,0,1,.76,1.48.52.52,0,0,1-.35.31c-.75.14-1.51.24-2.55.4A12.15,12.15,0,0,1,57.19,5.41Z" />
            <path class="cls-1"
                d="M105.14,10.06a3.8,3.8,0,0,0,4,.12l-.27-.75c-2.49.48-3.37.07-3.36-1.63l1.63-.25c.56-.09,1.12-.19,1.68-.24s.6-.25.58-.71a2.51,2.51,0,0,0-2-2.63,2.59,2.59,0,0,0-3.11,1.78A4.18,4.18,0,0,0,105.14,10.06Zm.46-4.39a1.22,1.22,0,0,1,1.54-.82,1.43,1.43,0,0,1,.94,1.51.61.61,0,0,1-.39.36c-.52.12-1.06.18-1.6.26-.2,0-.4,0-.79.06A11,11,0,0,1,105.6,5.67Z" />
            <path class="cls-1"
                d="M52.06,10.56a.93.93,0,0,0,.69-.49c.49-1.4.92-2.83,1.37-4.25l.53-1.67c-1.28-.21-1.28-.21-1.59.9l-1,3.64-.14,0-1-3.63c-.32-1.17-.52-1.27-1.77-.88.65,2,1.27,4,2,6C51.21,10.41,51.75,10.57,52.06,10.56Z" />
            <path class="cls-1"
                d="M67.48,9.67a10.53,10.53,0,0,1-1.09-.22l-.36,1a11.12,11.12,0,0,0,2.11.23,2,2,0,0,0,2-1.62c.15-.92-.3-1.63-1.36-2.17-.25-.13-.58-.22-.72-.43a1.33,1.33,0,0,1-.31-1c.1-.26.56-.46.89-.54a2.49,2.49,0,0,1,1,.16c.48-.56.28-.87-.33-1A5.41,5.41,0,0,0,67.8,4a1.75,1.75,0,0,0-1.54,1.41,1.78,1.78,0,0,0,.95,1.94c.27.15.56.27.83.41A1,1,0,0,1,68.62,9,.94.94,0,0,1,67.48,9.67Z" />
            <path class="cls-1"
                d="M62.32,10.53h1.44c0-1.65,0-3.24,0-4.83,0-.61.23-.88.8-.8s.76-.32.79-1c-.87.11-1.69.17-2.48.35a.89.89,0,0,0-.51.67c-.06,1,0,2,0,3Z" />
            <path class="cls-1" d="M46.58,10.53H47.9V4.1H46.58Z" />
            <path class="cls-1"
                d="M73,10.17V4.06a3.73,3.73,0,0,0-1,0c-.18,0-.44.28-.44.44,0,1.87,0,3.75,0,5.62,0,.54.39.45.71.45S73,10.71,73,10.17Z" />
            <path class="cls-1"
                d="M48,2.2a1,1,0,0,0-.7-.67,1,1,0,0,0-.75.62c0,.23.34.55.68,1C47.6,2.72,48,2.44,48,2.2Z" />
            <path class="cls-1"
                d="M72.29,2.81c.26,0,.56-.32.84-.51V2c-.3-.17-.62-.49-.89-.45s-.5.44-.75.68C71.75,2.42,72,2.79,72.29,2.81Z" />
            <polygon class="cls-1"
                points="0.73 40.02 1.75 40.02 1.75 37.22 4.01 37.22 4.01 36.23 1.75 36.23 1.75 34.59 4.29 34.59 4.29 33.6 0.73 33.6 0.73 40.02" />
            <path class="cls-1"
                d="M7.57,35.58A1.44,1.44,0,0,0,7,35.19a2.25,2.25,0,0,0-.83-.14,3.69,3.69,0,0,0-.76.08,3.68,3.68,0,0,0-.55.15l.13.91a2,2,0,0,1,.46-.13A3.06,3.06,0,0,1,6.12,36a1.32,1.32,0,0,1,.42.07.61.61,0,0,1,.26.21.89.89,0,0,1,.15.31A2.21,2.21,0,0,1,7,37v.19a3.74,3.74,0,0,0-.38-.08l-.35,0a2.51,2.51,0,0,0-.67.08,1.52,1.52,0,0,0-.56.26,1.16,1.16,0,0,0-.39.46,1.55,1.55,0,0,0-.14.71,2,2,0,0,0,.12.73,1.27,1.27,0,0,0,.89.75,2.63,2.63,0,0,0,.7.09,6.38,6.38,0,0,0,1-.08c.31,0,.54-.1.69-.14V37a3.21,3.21,0,0,0-.09-.78A1.49,1.49,0,0,0,7.57,35.58ZM7,39.18a3,3,0,0,1-.69.06,1,1,0,0,1-.6-.16.63.63,0,0,1-.22-.55.71.71,0,0,1,.08-.34A.63.63,0,0,1,5.78,38a1.32,1.32,0,0,1,.3-.1,1.84,1.84,0,0,1,.33,0,1.79,1.79,0,0,1,.34,0l.24.06Z" />
            <path class="cls-1"
                d="M11.66,39.12a2.73,2.73,0,0,1-.5.05,1.08,1.08,0,0,1-1-.42,2,2,0,0,1-.28-1.15,2,2,0,0,1,.3-1.16A1,1,0,0,1,11.1,36a2.31,2.31,0,0,1,.46,0,2.77,2.77,0,0,1,.38.14l.22-.92A2.79,2.79,0,0,0,11,35.05a1.93,1.93,0,0,0-.88.2,2,2,0,0,0-.67.54,2.38,2.38,0,0,0-.41.81,3.27,3.27,0,0,0-.15,1,3.65,3.65,0,0,0,.13,1,2.54,2.54,0,0,0,.39.81,2,2,0,0,0,.67.53,2.33,2.33,0,0,0,1,.19,3.08,3.08,0,0,0,.68-.08,1.61,1.61,0,0,0,.49-.17L12.08,39A3,3,0,0,1,11.66,39.12Z" />
            <path class="cls-1"
                d="M15.49,39.1a1.43,1.43,0,0,1-.29,0,2.55,2.55,0,0,1-.38,0,.76.76,0,0,1-.7-.33,2.3,2.3,0,0,1-.2-1.11V35.17h-1v2.72a4.32,4.32,0,0,0,.09.91,2.16,2.16,0,0,0,.29.71,1.49,1.49,0,0,0,.56.46,2,2,0,0,0,.86.17,5.24,5.24,0,0,0,1-.09l.74-.17V35.17h-1Z" />
            <path class="cls-1"
                d="M18.83,39a.54.54,0,0,1-.1-.23,1.75,1.75,0,0,1,0-.35V32.83l-1,.18V38.6a2.51,2.51,0,0,0,.07.64.92.92,0,0,0,.24.47,1,1,0,0,0,.46.3,2.73,2.73,0,0,0,.72.11l.14-.93a1.14,1.14,0,0,1-.32-.08A.43.43,0,0,1,18.83,39Z" />
            <path class="cls-1"
                d="M22.28,39.11a1.75,1.75,0,0,1-.48.06.6.6,0,0,1-.55-.25,1.57,1.57,0,0,1-.16-.83v-2H22.6v-.94H21.09V33.71l-1,.19v4.2a5.31,5.31,0,0,0,.07.85,1.69,1.69,0,0,0,.26.64,1.2,1.2,0,0,0,.48.41,1.88,1.88,0,0,0,.76.14,2.08,2.08,0,0,0,.65-.09,4,4,0,0,0,.45-.17L22.61,39Z" />
            <path class="cls-1"
                d="M26.32,35.58a1.44,1.44,0,0,0-.53-.39,2.19,2.19,0,0,0-.82-.14,3.79,3.79,0,0,0-.77.08,3.19,3.19,0,0,0-.54.15l.12.91a2,2,0,0,1,.46-.13,3.06,3.06,0,0,1,.63-.06,1.22,1.22,0,0,1,.42.07.71.71,0,0,1,.27.21.87.87,0,0,1,.14.31,1.5,1.5,0,0,1,0,.37v.19a2.87,2.87,0,0,0-.38-.08l-.34,0a2.41,2.41,0,0,0-.67.08,1.49,1.49,0,0,0-.57.26,1.35,1.35,0,0,0-.39.46,1.7,1.7,0,0,0-.14.71,1.77,1.77,0,0,0,.13.73,1.15,1.15,0,0,0,.35.48,1.25,1.25,0,0,0,.54.27,2.53,2.53,0,0,0,.7.09,6.56,6.56,0,0,0,1-.08c.3,0,.53-.1.68-.14V37a3.22,3.22,0,0,0-.08-.78A1.5,1.5,0,0,0,26.32,35.58Zm-.58,3.6a3,3,0,0,1-.69.06.94.94,0,0,1-.59-.16.78.78,0,0,1-.14-.89.53.53,0,0,1,.21-.21,1.32,1.32,0,0,1,.3-.1l.33,0a1.9,1.9,0,0,1,.35,0l.23.06Z" />
            <path class="cls-1"
                d="M30.51,35.34a1.85,1.85,0,0,0-.4-.18,1.55,1.55,0,0,0-.55-.09,1.79,1.79,0,0,0-.81.18,1.72,1.72,0,0,0-.59.52,2.36,2.36,0,0,0-.37.8,4.17,4.17,0,0,0-.13,1,3.53,3.53,0,0,0,.15,1.06,2.25,2.25,0,0,0,.44.79,1.87,1.87,0,0,0,.67.51,2.21,2.21,0,0,0,.91.18,4.73,4.73,0,0,0,.93-.09,5.75,5.75,0,0,0,.74-.18V32.83l-1,.18Zm0,3.76-.27,0-.4,0a1,1,0,0,1-.86-.42,2,2,0,0,1-.31-1.16,2.29,2.29,0,0,1,.25-1.14.87.87,0,0,1,.79-.41,1.22,1.22,0,0,1,.46.09,1.08,1.08,0,0,1,.34.19Z" />
            <path class="cls-1"
                d="M37.26,35.34a1.74,1.74,0,0,0-.41-.18,1.49,1.49,0,0,0-.54-.09,1.76,1.76,0,0,0-.81.18,1.72,1.72,0,0,0-.59.52,2.19,2.19,0,0,0-.37.8,3.75,3.75,0,0,0-.13,1,3.53,3.53,0,0,0,.15,1.06,2.4,2.4,0,0,0,.43.79,2,2,0,0,0,.68.51,2.21,2.21,0,0,0,.91.18,4.73,4.73,0,0,0,.93-.09,5.56,5.56,0,0,0,.73-.18V32.83l-1,.18Zm0,3.76-.27,0-.41,0a1,1,0,0,1-.85-.42,1.9,1.9,0,0,1-.31-1.16,2.19,2.19,0,0,1,.25-1.14.85.85,0,0,1,.78-.41,1.43,1.43,0,0,1,.81.28Z" />
            <path class="cls-1"
                d="M41.24,35.05a1.73,1.73,0,0,0-.73.17,1.83,1.83,0,0,0-.64.48,2.45,2.45,0,0,0-.44.8,3.47,3.47,0,0,0-.17,1.12,4,4,0,0,0,.13,1,2.31,2.31,0,0,0,.4.8,1.93,1.93,0,0,0,.69.53,2.4,2.4,0,0,0,1,.19,3,3,0,0,0,.43,0l.4-.07L42.6,40l.23-.1-.13-.92a2.31,2.31,0,0,1-.47.16,2.73,2.73,0,0,1-.66.07,1.25,1.25,0,0,1-.93-.32,1.37,1.37,0,0,1-.36-.9h2.81c0-.06,0-.13,0-.21v-.21a2.92,2.92,0,0,0-.49-1.85A1.64,1.64,0,0,0,41.24,35.05Zm-1,2.07a1.43,1.43,0,0,1,.09-.41,1.16,1.16,0,0,1,.18-.37,1,1,0,0,1,.29-.25.74.74,0,0,1,.4-.1.76.76,0,0,1,.38.09,1,1,0,0,1,.27.24,1.19,1.19,0,0,1,.16.36,1.61,1.61,0,0,1,.06.44Z" />
            <path class="cls-1"
                d="M49.58,39a2.75,2.75,0,0,1-.89.13,1.55,1.55,0,0,1-.78-.18,1.38,1.38,0,0,1-.54-.48,2.07,2.07,0,0,1-.31-.74A3.83,3.83,0,0,1,47,36.8a3.75,3.75,0,0,1,.13-1,2.18,2.18,0,0,1,.37-.73,1.45,1.45,0,0,1,.55-.43,1.72,1.72,0,0,1,.68-.14,2.32,2.32,0,0,1,1.34.39l.3-1-.19-.12a2.36,2.36,0,0,0-.35-.16l-.5-.13a3.06,3.06,0,0,0-.63-.06,2.58,2.58,0,0,0-1.08.22,2.46,2.46,0,0,0-.88.66,3,3,0,0,0-.59,1.05,4.17,4.17,0,0,0-.22,1.43,4.85,4.85,0,0,0,.19,1.43,3.05,3.05,0,0,0,.53,1,2.28,2.28,0,0,0,.86.65,2.79,2.79,0,0,0,1.14.22,3.91,3.91,0,0,0,.61,0,3.24,3.24,0,0,0,.51-.11c.15,0,.29-.09.4-.14a1.19,1.19,0,0,0,.26-.15l-.28-1A2.58,2.58,0,0,1,49.58,39Z" />
            <path class="cls-1"
                d="M51.73,33.06a.56.56,0,0,0-.43.19.69.69,0,0,0-.18.51.7.7,0,0,0,.18.5.6.6,0,0,0,.86,0,.7.7,0,0,0,.18-.5.69.69,0,0,0-.18-.51A.56.56,0,0,0,51.73,33.06Z" />
            <rect class="cls-1" x="51.24" y="35.17" width="0.98" height="4.85" />
            <path class="cls-1"
                d="M55.22,35.05a1.73,1.73,0,0,0-.73.17,1.71,1.71,0,0,0-.63.48,2.29,2.29,0,0,0-.45.8,3.48,3.48,0,0,0-.16,1.12,3.58,3.58,0,0,0,.13,1,2.15,2.15,0,0,0,.4.8,1.81,1.81,0,0,0,.68.53,2.45,2.45,0,0,0,1,.19,3.11,3.11,0,0,0,.43,0l.39-.07.33-.09.22-.1-.13-.92a2.11,2.11,0,0,1-.47.16,2.59,2.59,0,0,1-.65.07,1.22,1.22,0,0,1-.93-.32,1.33,1.33,0,0,1-.37-.9h2.81a1.34,1.34,0,0,0,0-.21,1.62,1.62,0,0,0,0-.21,3,3,0,0,0-.49-1.85A1.66,1.66,0,0,0,55.22,35.05Zm-.95,2.07a2.71,2.71,0,0,1,.09-.41,1.82,1.82,0,0,1,.18-.37,1,1,0,0,1,.29-.25.77.77,0,0,1,.4-.1.74.74,0,0,1,.38.09.78.78,0,0,1,.27.24,1.2,1.2,0,0,1,.17.36,2.12,2.12,0,0,1,.05.44Z" />
            <path class="cls-1"
                d="M61.31,35.69a1.31,1.31,0,0,0-.56-.45,2,2,0,0,0-.87-.17,5.27,5.27,0,0,0-1,.09,5.54,5.54,0,0,0-.74.17V40h1V36.11l.3,0a2.56,2.56,0,0,1,.39,0,.88.88,0,0,1,.42.08.57.57,0,0,1,.28.25,1.19,1.19,0,0,1,.15.44,4.24,4.24,0,0,1,0,.66V40h1V37.3a4.32,4.32,0,0,0-.09-.91A1.7,1.7,0,0,0,61.31,35.69Z" />
            <path class="cls-1"
                d="M65.41,39.12a2.83,2.83,0,0,1-.5.05,1.08,1.08,0,0,1-1-.42,2,2,0,0,1-.28-1.15,2,2,0,0,1,.3-1.16,1,1,0,0,1,.88-.41,2.31,2.31,0,0,1,.46,0,2.77,2.77,0,0,1,.38.14l.21-.92a2.72,2.72,0,0,0-1.14-.25,1.92,1.92,0,0,0-.87.2,2,2,0,0,0-.67.54,2.59,2.59,0,0,0-.42.81,3.61,3.61,0,0,0-.14,1,3.65,3.65,0,0,0,.13,1,2.35,2.35,0,0,0,.39.81,2,2,0,0,0,.67.53,2.3,2.3,0,0,0,.95.19,3.08,3.08,0,0,0,.68-.08A1.61,1.61,0,0,0,66,39.9L65.83,39A3,3,0,0,1,65.41,39.12Z" />
            <rect class="cls-1" x="66.74" y="35.17" width="0.98" height="4.85" />
            <path class="cls-1"
                d="M67.23,33.06a.56.56,0,0,0-.43.19.69.69,0,0,0-.18.51.7.7,0,0,0,.18.5.58.58,0,0,0,.43.18.58.58,0,0,0,.42-.18.7.7,0,0,0,.18-.5.69.69,0,0,0-.18-.51A.55.55,0,0,0,67.23,33.06Z" />
            <path class="cls-1"
                d="M71.75,35.58a1.44,1.44,0,0,0-.53-.39,2.19,2.19,0,0,0-.82-.14,3.79,3.79,0,0,0-.77.08,3.19,3.19,0,0,0-.54.15l.12.91a2,2,0,0,1,.46-.13A3.06,3.06,0,0,1,70.3,36a1.22,1.22,0,0,1,.42.07.71.71,0,0,1,.27.21.87.87,0,0,1,.14.31,1.5,1.5,0,0,1,0,.37v.19a3.25,3.25,0,0,0-.38-.08l-.34,0a2.53,2.53,0,0,0-.68.08,1.52,1.52,0,0,0-.56.26,1.35,1.35,0,0,0-.39.46,1.7,1.7,0,0,0-.14.71,1.77,1.77,0,0,0,.13.73,1.15,1.15,0,0,0,.35.48,1.25,1.25,0,0,0,.54.27,2.53,2.53,0,0,0,.7.09,6.56,6.56,0,0,0,1-.08c.3,0,.53-.1.68-.14V37a3.81,3.81,0,0,0-.08-.78A1.5,1.5,0,0,0,71.75,35.58Zm-.58,3.6a3,3,0,0,1-.69.06,1,1,0,0,1-.6-.16.63.63,0,0,1-.22-.55.62.62,0,0,1,.09-.34A.53.53,0,0,1,70,38a1.32,1.32,0,0,1,.3-.1,1.84,1.84,0,0,1,.33,0,1.72,1.72,0,0,1,.34,0l.24.06Z" />
            <path class="cls-1"
                d="M75.82,37.77a1.68,1.68,0,0,0-.4-.33,6.54,6.54,0,0,0-.59-.29L74.47,37a1.24,1.24,0,0,1-.24-.16.52.52,0,0,1-.13-.17.66.66,0,0,1,0-.21.38.38,0,0,1,.19-.36.85.85,0,0,1,.48-.12,2.51,2.51,0,0,1,.59.07,2.18,2.18,0,0,1,.42.16l.17-.91a3.52,3.52,0,0,0-.51-.16,3.36,3.36,0,0,0-.71-.08,1.7,1.7,0,0,0-1.18.39,1.37,1.37,0,0,0-.43,1.05,1.44,1.44,0,0,0,.1.58,1.09,1.09,0,0,0,.25.4,1.68,1.68,0,0,0,.39.3,4.48,4.48,0,0,0,.49.23,2.82,2.82,0,0,1,.63.35.47.47,0,0,1,.19.4.38.38,0,0,1-.18.36,1.17,1.17,0,0,1-.57.11,2.4,2.4,0,0,1-.69-.09,5,5,0,0,1-.53-.2l-.17.94a4.48,4.48,0,0,0,.48.17,3.18,3.18,0,0,0,.91.11,2.06,2.06,0,0,0,1.29-.36,1.27,1.27,0,0,0,.45-1,1.79,1.79,0,0,0-.08-.56A.93.93,0,0,0,75.82,37.77Z" />
            <path class="cls-1"
                d="M82,37a1.83,1.83,0,0,0-.53-.41,5.91,5.91,0,0,0-.71-.34l-.42-.19a1.74,1.74,0,0,1-.33-.23.8.8,0,0,1-.22-.27.81.81,0,0,1-.08-.37.68.68,0,0,1,.23-.54,1,1,0,0,1,.65-.2,2.59,2.59,0,0,1,.68.09,3.05,3.05,0,0,1,.61.27l.31-.94a2.4,2.4,0,0,0-.64-.3,3.39,3.39,0,0,0-.94-.13,2.06,2.06,0,0,0-1.45.5,1.77,1.77,0,0,0-.52,1.36,1.94,1.94,0,0,0,.12.72,1.69,1.69,0,0,0,.34.51,1.78,1.78,0,0,0,.48.36l.56.26a3.66,3.66,0,0,1,.52.23,1.87,1.87,0,0,1,.39.25,1,1,0,0,1,.24.3.82.82,0,0,1,.09.4.76.76,0,0,1-.25.6,1.27,1.27,0,0,1-.81.21,2.43,2.43,0,0,1-.9-.14,3.49,3.49,0,0,1-.6-.27l-.3.95.26.14a2.42,2.42,0,0,0,.39.16,3.81,3.81,0,0,0,1.15.17,2.37,2.37,0,0,0,1.58-.47,1.71,1.71,0,0,0,.54-1.35,2.26,2.26,0,0,0-.11-.78A1.68,1.68,0,0,0,82,37Z" />
            <path class="cls-1"
                d="M86.62,35.75a1.8,1.8,0,0,0-.65-.51,1.74,1.74,0,0,0-.82-.19,1.78,1.78,0,0,0-.83.19,1.86,1.86,0,0,0-.64.51,2.45,2.45,0,0,0-.43.8,3.72,3.72,0,0,0,0,2.09,2.39,2.39,0,0,0,.42.81,1.92,1.92,0,0,0,.65.52,1.87,1.87,0,0,0,.83.18,1.84,1.84,0,0,0,1.48-.7,2.21,2.21,0,0,0,.41-.81,3.72,3.72,0,0,0,0-2.09A2.43,2.43,0,0,0,86.62,35.75Zm-.71,3a.85.85,0,0,1-.76.43.84.84,0,0,1-.76-.43,2,2,0,0,1-.28-1.15,2,2,0,0,1,.28-1.15.85.85,0,0,1,.76-.42.86.86,0,0,1,.76.42,2.1,2.1,0,0,1,.27,1.15A2.13,2.13,0,0,1,85.91,38.75Z" />
            <path class="cls-1"
                d="M90.72,39.12a2.72,2.72,0,0,1-.49.05,1.08,1.08,0,0,1-1-.42A2,2,0,0,1,89,37.6a2,2,0,0,1,.3-1.16,1,1,0,0,1,.88-.41,2.24,2.24,0,0,1,.46,0,3.54,3.54,0,0,1,.39.14l.21-.92a2.79,2.79,0,0,0-1.14-.25,1.92,1.92,0,0,0-1.54.74,2.59,2.59,0,0,0-.42.81,3.27,3.27,0,0,0-.15,1,3.65,3.65,0,0,0,.13,1,2.36,2.36,0,0,0,.4.81,1.91,1.91,0,0,0,.66.53,2.33,2.33,0,0,0,1,.19,3,3,0,0,0,.68-.08,1.51,1.51,0,0,0,.49-.17L91.15,39A2.72,2.72,0,0,1,90.72,39.12Z" />
            <rect class="cls-1" x="92.06" y="35.17" width="0.98" height="4.85" />
            <path class="cls-1"
                d="M92.55,33.06a.58.58,0,0,0-.44.19.84.84,0,0,0,0,1,.6.6,0,0,0,.44.18.58.58,0,0,0,.42-.18.7.7,0,0,0,.18-.5.69.69,0,0,0-.18-.51A.55.55,0,0,0,92.55,33.06Z" />
            <path class="cls-1"
                d="M97.07,35.58a1.48,1.48,0,0,0-.54-.39,2.16,2.16,0,0,0-.82-.14,4.14,4.14,0,0,0-1.31.23l.12.91a2.08,2.08,0,0,1,.47-.13,3,3,0,0,1,.62-.06,1.22,1.22,0,0,1,.42.07.71.71,0,0,1,.27.21.73.73,0,0,1,.14.31,1.5,1.5,0,0,1,0,.37v.19a3.39,3.39,0,0,0-.39-.08l-.34,0a2.46,2.46,0,0,0-.67.08,1.56,1.56,0,0,0-.57.26,1.22,1.22,0,0,0-.38.46,1.55,1.55,0,0,0-.15.71,2,2,0,0,0,.13.73,1.15,1.15,0,0,0,.35.48A1.25,1.25,0,0,0,95,40a2.58,2.58,0,0,0,.7.09,6.47,6.47,0,0,0,1-.08c.31,0,.54-.1.69-.14V37a3.21,3.21,0,0,0-.09-.78A1.49,1.49,0,0,0,97.07,35.58Zm-.58,3.6a3.06,3.06,0,0,1-.7.06,1,1,0,0,1-.59-.16.61.61,0,0,1-.22-.55.71.71,0,0,1,.08-.34.63.63,0,0,1,.22-.21,1.32,1.32,0,0,1,.3-.1,1.84,1.84,0,0,1,.33,0,1.79,1.79,0,0,1,.34,0l.24.06Z" />
            <path class="cls-1"
                d="M99.74,39a.54.54,0,0,1-.1-.23,1.75,1.75,0,0,1,0-.35V32.83l-1,.18V38.6a2.51,2.51,0,0,0,.07.64.92.92,0,0,0,.24.47,1,1,0,0,0,.46.3,2.73,2.73,0,0,0,.72.11l.14-.93a1.14,1.14,0,0,1-.32-.08A.43.43,0,0,1,99.74,39Z" />
            <path class="cls-1"
                d="M102.8,35.05a1.73,1.73,0,0,0-.73.17,1.83,1.83,0,0,0-.64.48,2.45,2.45,0,0,0-.44.8,3.47,3.47,0,0,0-.17,1.12,4,4,0,0,0,.13,1,2.31,2.31,0,0,0,.4.8A1.93,1.93,0,0,0,102,40a2.4,2.4,0,0,0,1,.19,3.25,3.25,0,0,0,.44,0l.39-.07.33-.09.22-.1-.13-.92a2.11,2.11,0,0,1-.47.16,2.7,2.7,0,0,1-.65.07,1.26,1.26,0,0,1-.94-.32,1.37,1.37,0,0,1-.36-.9h2.81a1.34,1.34,0,0,0,0-.21c0-.08,0-.15,0-.21a2.92,2.92,0,0,0-.5-1.85A1.62,1.62,0,0,0,102.8,35.05Zm-1,2.07a2.71,2.71,0,0,1,.09-.41,1.16,1.16,0,0,1,.18-.37,1,1,0,0,1,.29-.25.85.85,0,0,1,.78,0,1,1,0,0,1,.27.24,1,1,0,0,1,.16.36,1.61,1.61,0,0,1,.06.44Z" />
            <path class="cls-1"
                d="M108.2,37.77a1.68,1.68,0,0,0-.4-.33,6.54,6.54,0,0,0-.59-.29l-.36-.16a1.24,1.24,0,0,1-.24-.16.38.38,0,0,1-.12-.17.46.46,0,0,1,0-.21.38.38,0,0,1,.19-.36.85.85,0,0,1,.48-.12,2.51,2.51,0,0,1,.59.07,2.18,2.18,0,0,1,.42.16l.17-.91a3.52,3.52,0,0,0-.51-.16,3.29,3.29,0,0,0-.71-.08,1.7,1.7,0,0,0-1.18.39,1.37,1.37,0,0,0-.43,1.05,1.44,1.44,0,0,0,.1.58,1.09,1.09,0,0,0,.25.4,1.68,1.68,0,0,0,.39.3,4.48,4.48,0,0,0,.49.23,2.82,2.82,0,0,1,.63.35.47.47,0,0,1,.19.4.38.38,0,0,1-.18.36,1.17,1.17,0,0,1-.57.11,2.4,2.4,0,0,1-.69-.09,5,5,0,0,1-.53-.2l-.17.94a4.48,4.48,0,0,0,.48.17,3.18,3.18,0,0,0,.91.11,2,2,0,0,0,1.29-.36,1.27,1.27,0,0,0,.45-1,1.79,1.79,0,0,0-.08-.56A.93.93,0,0,0,108.2,37.77Z" />
        </g>
    </g>
</svg>